4 Generating and plotting data | Creating the flowtrend R package
…
Let’s generate some data using these functions.

dt = gendat_1d(TT = 100, ntlist =rep(100,100))
print(dt)

## # A tibble: 10,000 × 4
##     time      Y    mu cluster
##    <int>  <dbl> <dbl>   <int>
##  1     1 -2.30  -1.49       1
##  2     1 -2.40  -1.49       1
##  3     1 -1.84  -1.49       1
##  4     1 -1.43  -1.49       1
##  5     1 -1.22  -1.49       1
##  6     1 -1.84  -1.49       1
##  7     1 -0.879 -1.49       1
##  8     1 -1.04  -1.49       1
##  9     1 -1.99  -1.49       1
## 10     1 -1.67  -1.49       1
## # ℹ 9,990 more rows
…
